<?xml version="1.0" encoding="UTF-8"?>
<svg width="12px" height="12px" viewBox="0 0 12 12" version="1.1" xmlns="http://www.w3.org/2000/svg" xmlns:xlink="http://www.w3.org/1999/xlink">
    <!-- Generator: Sketch 57 (83077) - https://sketch.com -->
    <title>corner-down-right</title>
    <desc>Created with Sketch.</desc>
    <g id="Symbols" stroke="none" stroke-width="1" fill="none" fill-rule="evenodd" stroke-linecap="round" stroke-linejoin="round">
        <g id="icons/reply" transform="translate(1.000000, 1.000000)" stroke="#000000" stroke-width="1.19999993">
            <g id="corner-down-right">
                <polyline id="Path" points="6.875 3.75 10 6.875 6.875 10"></polyline>
                <path d="M0,0 L0,4.375 C0,5.75571187 1.11928813,6.875 2.5,6.875 L10,6.875" id="Path"></path>
            </g>
        </g>
    </g>
</svg>